EESchema Schematic File Version 4
EELAYER 30 0
EELAYER END
$Descr A4 11693 8268
encoding utf-8
Sheet 1 3
Title ""
Date ""
Rev ""
Comp ""
Comment1 ""
Comment2 ""
Comment3 ""
Comment4 ""
$EndDescr
Wire Wire Line
	3190 4145 3190 4260
Wire Wire Line
	3190 4260 3390 4260
Wire Wire Line
	3390 4260 3390 4145
$Comp
L power:GND #PWR018
U 1 1 60C93397
P 3390 4580
F 0 "#PWR018" H 3390 4330 50  0001 C CNN
F 1 "GND" H 3395 4407 50  0000 C CNN
F 2 "" H 3390 4580 50  0001 C CNN
F 3 "" H 3390 4580 50  0001 C CNN
	1    3390 4580
	1    0    0    -1  
$EndComp
Wire Wire Line
	3390 4580 3390 4535
Connection ~ 3390 4260
Wire Wire Line
	10030 5400 10270 5400
Wire Wire Line
	9330 5400 8940 5400
$Comp
L power:+3.3V #PWR09
U 1 1 60C9D67F
P 3190 2080
F 0 "#PWR09" H 3190 1930 50  0001 C CNN
F 1 "+3.3V" H 3205 2253 50  0000 C CNN
F 2 "" H 3190 2080 50  0001 C CNN
F 3 "" H 3190 2080 50  0001 C CNN
	1    3190 2080
	1    0    0    -1  
$EndComp
Wire Wire Line
	3190 2080 3190 2105
$Comp
L RF_Module:ESP-12E U?
U 1 1 60CD43D2
P 6245 2470
AR Path="/60C9915C/60CD43D2" Ref="U?"  Part="1" 
AR Path="/60CD43D2" Ref="U1"  Part="1" 
F 0 "U1" H 5965 3260 50  0000 C CNN
F 1 "ESP-12E" H 6555 3270 50  0000 C CNN
F 2 "RF_Module:ESP-12E" H 6245 2470 50  0001 C CNN
F 3 "http://wiki.ai-thinker.com/_media/esp8266/esp8266_series_modules_user_manual_v1.1.pdf" H 5895 2570 50  0001 C CNN
	1    6245 2470
	1    0    0    -1  
$EndComp
$Comp
L power:GND #PWR?
U 1 1 60CD43D8
P 6245 3270
AR Path="/60C9915C/60CD43D8" Ref="#PWR?"  Part="1" 
AR Path="/60CD43D8" Ref="#PWR014"  Part="1" 
F 0 "#PWR014" H 6245 3020 50  0001 C CNN
F 1 "GND" H 6250 3097 50  0000 C CNN
F 2 "" H 6245 3270 50  0001 C CNN
F 3 "" H 6245 3270 50  0001 C CNN
	1    6245 3270
	1    0    0    -1  
$EndComp
Wire Wire Line
	6245 3270 6245 3170
$Comp
L power:+3.3V #PWR?
U 1 1 60CD43DF
P 6245 1330
AR Path="/60C9915C/60CD43DF" Ref="#PWR?"  Part="1" 
AR Path="/60CD43DF" Ref="#PWR07"  Part="1" 
F 0 "#PWR07" H 6245 1180 50  0001 C CNN
F 1 "+3.3V" H 6260 1503 50  0000 C CNN
F 2 "" H 6245 1330 50  0001 C CNN
F 3 "" H 6245 1330 50  0001 C CNN
	1    6245 1330
	1    0    0    -1  
$EndComp
Wire Wire Line
	6245 1670 6245 1330
$Comp
L Device:R R?
U 1 1 60CD43E6
P 5415 2070
AR Path="/60C9915C/60CD43E6" Ref="R?"  Part="1" 
AR Path="/60CD43E6" Ref="R3"  Part="1" 
F 0 "R3" V 5325 1990 50  0000 C CNN
F 1 "10k" V 5325 2160 50  0000 C CNN
F 2 "Resistor_SMD:R_0805_2012Metric_Pad1.15x1.40mm_HandSolder" V 5345 2070 50  0001 C CNN
F 3 "~" H 5415 2070 50  0001 C CNN
	1    5415 2070
	0    1    1    0   
$EndComp
$Comp
L Device:R R?
U 1 1 60CD43EC
P 7895 2770
AR Path="/60C9915C/60CD43EC" Ref="R?"  Part="1" 
AR Path="/60CD43EC" Ref="R7"  Part="1" 
F 0 "R7" V 7805 2690 50  0000 C CNN
F 1 "10k" V 7805 2860 50  0000 C CNN
F 2 "Resistor_SMD:R_0805_2012Metric_Pad1.15x1.40mm_HandSolder" V 7825 2770 50  0001 C CNN
F 3 "~" H 7895 2770 50  0001 C CNN
	1    7895 2770
	0    1    1    0   
$EndComp
Wire Wire Line
	5265 2070 5205 2070
Wire Wire Line
	5645 2070 5565 2070
$Comp
L power:GND #PWR?
U 1 1 60CD43F4
P 8165 2770
AR Path="/60C9915C/60CD43F4" Ref="#PWR?"  Part="1" 
AR Path="/60CD43F4" Ref="#PWR012"  Part="1" 
F 0 "#PWR012" H 8165 2520 50  0001 C CNN
F 1 "GND" V 8170 2642 50  0000 R CNN
F 2 "" H 8165 2770 50  0001 C CNN
F 3 "" H 8165 2770 50  0001 C CNN
	1    8165 2770
	0    -1   -1   0   
$EndComp
Wire Wire Line
	8165 2770 8045 2770
Wire Wire Line
	6975 1970 6845 1970
Wire Wire Line
	6845 2170 6985 2170
$Comp
L Device:R R?
U 1 1 60CD43FD
P 6995 1500
AR Path="/60C9915C/60CD43FD" Ref="R?"  Part="1" 
AR Path="/60CD43FD" Ref="R1"  Part="1" 
F 0 "R1" V 6905 1420 50  0000 C CNN
F 1 "10k" V 6905 1590 50  0000 C CNN
F 2 "Resistor_SMD:R_0805_2012Metric_Pad1.15x1.40mm_HandSolder" V 6925 1500 50  0001 C CNN
F 3 "~" H 6995 1500 50  0001 C CNN
	1    6995 1500
	-1   0    0    1   
$EndComp
Wire Wire Line
	6245 1330 6995 1330
Wire Wire Line
	6995 1330 6995 1350
Connection ~ 6245 1330
Wire Wire Line
	6845 1870 6995 1870
Wire Wire Line
	6995 1870 6995 1650
Wire Wire Line
	7125 1870 6995 1870
Connection ~ 6995 1870
Wire Wire Line
	6985 2270 6845 2270
Wire Wire Line
	6845 2370 6985 2370
NoConn ~ 5645 2470
NoConn ~ 5645 2570
NoConn ~ 5645 2770
NoConn ~ 5645 2870
NoConn ~ 5645 2970
Wire Wire Line
	6845 2470 6985 2470
Text Label 6975 1970 0    50   ~ 0
TX_ESP
$Comp
L power:+3.3V #PWR?
U 1 1 60CD4413
P 5145 2070
AR Path="/60C9915C/60CD4413" Ref="#PWR?"  Part="1" 
AR Path="/60CD4413" Ref="#PWR08"  Part="1" 
F 0 "#PWR08" H 5145 1920 50  0001 C CNN
F 1 "+3.3V" V 5160 2198 50  0000 L CNN
F 2 "" H 5145 2070 50  0001 C CNN
F 3 "" H 5145 2070 50  0001 C CNN
	1    5145 2070
	0    -1   -1   0   
$EndComp
Wire Wire Line
	6845 2070 6975 2070
Wire Wire Line
	6845 2570 6985 2570
Wire Wire Line
	6845 2870 6985 2870
Text Label 5455 1870 2    50   ~ 0
RST
NoConn ~ 5645 2670
Text Label 6985 2370 0    50   ~ 0
GPIO05
Text Label 6985 2270 0    50   ~ 0
GPIO04
Text Label 6985 2170 0    50   ~ 0
RX_ESP
Wire Wire Line
	6845 2670 6985 2670
Text Label 6975 2070 0    50   ~ 0
GPIO2
Wire Wire Line
	6845 2770 7655 2770
Text Label 7655 2620 0    50   ~ 0
GPIO15
Wire Wire Line
	7655 2620 7655 2770
Connection ~ 7655 2770
Wire Wire Line
	7655 2770 7745 2770
$Comp
L Switch:SW_Push SW?
U 1 1 60CE48CF
P 5780 6445
AR Path="/60C9915C/60CE48CF" Ref="SW?"  Part="1" 
AR Path="/60CE48CF" Ref="SW2"  Part="1" 
F 0 "SW2" H 5780 6260 50  0000 C CNN
F 1 "BTN" H 5780 6351 50  0000 C CNN
F 2 "Button_Switch_SMD:SW_SPST_SKQG_WithStem" H 5780 6645 50  0001 C CNN
F 3 "~" H 5780 6645 50  0001 C CNN
	1    5780 6445
	-1   0    0    1   
$EndComp
$Comp
L power:GND #PWR?
U 1 1 60CE48D6
P 6365 6900
AR Path="/60C9915C/60CE48D6" Ref="#PWR?"  Part="1" 
AR Path="/60CE48D6" Ref="#PWR025"  Part="1" 
F 0 "#PWR025" H 6365 6650 50  0001 C CNN
F 1 "GND" H 6370 6727 50  0000 C CNN
F 2 "" H 6365 6900 50  0001 C CNN
F 3 "" H 6365 6900 50  0001 C CNN
	1    6365 6900
	1    0    0    -1  
$EndComp
Text Label 4510 6445 2    50   ~ 0
GPIO2
$Comp
L Connector:Barrel_Jack_Switch J?
U 1 1 60CECEC1
P 9275 3820
AR Path="/60C9915C/60CECEC1" Ref="J?"  Part="1" 
AR Path="/60CECEC1" Ref="J2"  Part="1" 
F 0 "J2" H 9332 4145 50  0000 C CNN
F 1 "Barrel_Jack" H 9332 4054 50  0000 C CNN
F 2 "Connector_BarrelJack:BarrelJack_Horizontal" H 9325 3780 50  0001 C CNN
F 3 "~" H 9325 3780 50  0001 C CNN
	1    9275 3820
	1    0    0    -1  
$EndComp
Wire Wire Line
	9295 3770 9305 3770
Wire Wire Line
	9305 3960 9305 3970
Wire Wire Line
	9575 3720 9725 3720
Wire Wire Line
	9575 3820 9645 3820
Wire Wire Line
	9645 3820 9645 3920
$Comp
L power:GND #PWR?
U 1 1 60CECECC
P 9885 3920
AR Path="/60C9915C/60CECECC" Ref="#PWR?"  Part="1" 
AR Path="/60CECECC" Ref="#PWR016"  Part="1" 
F 0 "#PWR016" H 9885 3670 50  0001 C CNN
F 1 "GND" H 9890 3747 50  0000 C CNN
F 2 "" H 9885 3920 50  0001 C CNN
F 3 "" H 9885 3920 50  0001 C CNN
	1    9885 3920
	1    0    0    -1  
$EndComp
Wire Wire Line
	9575 3920 9645 3920
Connection ~ 9645 3920
Wire Wire Line
	9645 3920 9885 3920
$Comp
L Switch:SW_DPDT_x2 SW?
U 1 1 60CECED5
P 9925 3720
AR Path="/60C9915C/60CECED5" Ref="SW?"  Part="1" 
AR Path="/60CECED5" Ref="SW1"  Part="1" 
F 0 "SW1" H 9925 3913 50  0000 C CNN
F 1 "SW_DPST_x2" H 9925 3864 50  0001 C CNN
F 2 "Button_Switch_THT:SW_CuK_OS102011MA1QN1_SPDT_Angled" H 9925 3720 50  0001 C CNN
F 3 "~" H 9925 3720 50  0001 C CNN
	1    9925 3720
	1    0    0    -1  
$EndComp
Wire Wire Line
	10255 3620 10125 3620
NoConn ~ 10125 3820
$Comp
L power:VCC #PWR010
U 1 1 60CF273B
P 3390 2250
F 0 "#PWR010" H 3390 2100 50  0001 C CNN
F 1 "VCC" H 3407 2423 50  0000 C CNN
F 2 "" H 3390 2250 50  0001 C CNN
F 3 "" H 3390 2250 50  0001 C CNN
	1    3390 2250
	1    0    0    -1  
$EndComp
Wire Wire Line
	3390 2250 3390 2490
$Comp
L power:VCC #PWR020
U 1 1 60CF52B2
P 8940 5230
F 0 "#PWR020" H 8940 5080 50  0001 C CNN
F 1 "VCC" H 8957 5403 50  0000 C CNN
F 2 "" H 8940 5230 50  0001 C CNN
F 3 "" H 8940 5230 50  0001 C CNN
	1    8940 5230
	1    0    0    -1  
$EndComp
Wire Wire Line
	8940 5230 8940 5400
$Comp
L power:VCC #PWR015
U 1 1 60CF81F9
P 10670 3620
F 0 "#PWR015" H 10670 3470 50  0001 C CNN
F 1 "VCC" V 10687 3748 50  0000 L CNN
F 2 "" H 10670 3620 50  0001 C CNN
F 3 "" H 10670 3620 50  0001 C CNN
	1    10670 3620
	0    1    1    0   
$EndComp
Text Label 6985 2870 0    50   ~ 0
GPIO16
Text Label 7125 1870 0    50   ~ 0
GPIO0
Text Label 9125 1775 2    50   ~ 0
GPIO0
Text Label 9120 1525 2    50   ~ 0
TX_ESP
Text Label 9120 1650 2    50   ~ 0
RX_ESP
Text Label 9125 1900 2    50   ~ 0
RST
Wire Wire Line
	9240 1900 9125 1900
Wire Wire Line
	9240 1775 9125 1775
Wire Wire Line
	9240 1650 9120 1650
Wire Wire Line
	9240 1525 9120 1525
$Sheet
S 9240 1290 835  855 
U 60C86360
F0 "USB_Serial" 50
F1 "USB_Serial.sch" 50
F2 "RST" I L 9240 1900 50 
F3 "GPIO0" I L 9240 1775 50 
F4 "TXD" I L 9240 1650 50 
F5 "RXD" I L 9240 1525 50 
$EndSheet
$Comp
L power:GND #PWR?
U 1 1 60D99AD1
P 1815 7085
AR Path="/60D85807/60D99AD1" Ref="#PWR?"  Part="1" 
AR Path="/60D99AD1" Ref="#PWR026"  Part="1" 
F 0 "#PWR026" H 1815 6835 50  0001 C CNN
F 1 "GND" H 1820 6912 50  0000 C CNN
F 2 "" H 1815 7085 50  0001 C CNN
F 3 "" H 1815 7085 50  0001 C CNN
	1    1815 7085
	1    0    0    -1  
$EndComp
Wire Wire Line
	1815 7085 2115 7085
Wire Wire Line
	2115 7085 2115 7005
Wire Wire Line
	2115 7085 2815 7085
Wire Wire Line
	2815 7085 2815 7005
Connection ~ 2115 7085
Wire Wire Line
	2095 6675 1815 6675
Wire Wire Line
	1815 6675 1815 7085
Connection ~ 1815 7085
Wire Wire Line
	2815 6675 2095 6675
Connection ~ 2095 6675
$Comp
L Mechanical:MountingHole_Pad H?
U 1 1 60D99AE1
P 2815 6905
AR Path="/60D85807/60D99AE1" Ref="H?"  Part="1" 
AR Path="/60D99AE1" Ref="H4"  Part="1" 
F 0 "H4" H 2915 6951 50  0000 L CNN
F 1 "MountingHole" H 2915 6860 50  0000 L CNN
F 2 "MountingHole:MountingHole_3.2mm_M3_Pad_Via" H 2815 6905 50  0001 C CNN
F 3 "~" H 2815 6905 50  0001 C CNN
	1    2815 6905
	1    0    0    -1  
$EndComp
$Comp
L Mechanical:MountingHole_Pad H?
U 1 1 60D99AE7
P 2115 6905
AR Path="/60D85807/60D99AE7" Ref="H?"  Part="1" 
AR Path="/60D99AE7" Ref="H3"  Part="1" 
F 0 "H3" H 2215 6951 50  0000 L CNN
F 1 "MountingHole" H 2215 6860 50  0000 L CNN
F 2 "MountingHole:MountingHole_3.2mm_M3_Pad_Via" H 2115 6905 50  0001 C CNN
F 3 "~" H 2115 6905 50  0001 C CNN
	1    2115 6905
	1    0    0    -1  
$EndComp
$Comp
L Mechanical:MountingHole_Pad H?
U 1 1 60D99AED
P 2815 6575
AR Path="/60D85807/60D99AED" Ref="H?"  Part="1" 
AR Path="/60D99AED" Ref="H2"  Part="1" 
F 0 "H2" H 2915 6621 50  0000 L CNN
F 1 "MountingHole" H 2915 6530 50  0000 L CNN
F 2 "MountingHole:MountingHole_3.2mm_M3_Pad_Via" H 2815 6575 50  0001 C CNN
F 3 "~" H 2815 6575 50  0001 C CNN
	1    2815 6575
	1    0    0    -1  
$EndComp
$Comp
L Mechanical:MountingHole_Pad H?
U 1 1 60D99AF3
P 2095 6575
AR Path="/60D85807/60D99AF3" Ref="H?"  Part="1" 
AR Path="/60D99AF3" Ref="H1"  Part="1" 
F 0 "H1" H 2195 6621 50  0000 L CNN
F 1 "MountingHole" H 2195 6530 50  0000 L CNN
F 2 "MountingHole:MountingHole_3.2mm_M3_Pad_Via" H 2095 6575 50  0001 C CNN
F 3 "~" H 2095 6575 50  0001 C CNN
	1    2095 6575
	1    0    0    -1  
$EndComp
$Comp
L Device:LED D?
U 1 1 60DB8505
P 7045 5210
AR Path="/60D85807/60DB8505" Ref="D?"  Part="1" 
AR Path="/60DB8505" Ref="D4"  Part="1" 
F 0 "D4" H 7038 4955 50  0000 C CNN
F 1 "LED" H 7038 5046 50  0000 C CNN
F 2 "LED_SMD:LED_0805_2012Metric_Pad1.15x1.40mm_HandSolder" H 7045 5210 50  0001 C CNN
F 3 "~" H 7045 5210 50  0001 C CNN
	1    7045 5210
	-1   0    0    1   
$EndComp
$Comp
L Device:R R?
U 1 1 60DB850B
P 6595 5210
AR Path="/60D85807/60DB850B" Ref="R?"  Part="1" 
AR Path="/60DB850B" Ref="R14"  Part="1" 
F 0 "R14" V 6505 5130 50  0000 C CNN
F 1 "1k" V 6505 5300 50  0000 C CNN
F 2 "Resistor_SMD:R_0805_2012Metric_Pad1.15x1.40mm_HandSolder" V 6525 5210 50  0001 C CNN
F 3 "~" H 6595 5210 50  0001 C CNN
	1    6595 5210
	0    1    1    0   
$EndComp
Wire Wire Line
	6895 5210 6745 5210
$Comp
L power:GND #PWR?
U 1 1 60DB8512
P 7595 5310
AR Path="/60D85807/60DB8512" Ref="#PWR?"  Part="1" 
AR Path="/60DB8512" Ref="#PWR022"  Part="1" 
F 0 "#PWR022" H 7595 5060 50  0001 C CNN
F 1 "GND" H 7600 5137 50  0000 C CNN
F 2 "" H 7595 5310 50  0001 C CNN
F 3 "" H 7595 5310 50  0001 C CNN
	1    7595 5310
	1    0    0    -1  
$EndComp
Wire Wire Line
	7195 5210 7595 5210
Wire Wire Line
	7595 5210 7595 5310
Text Label 6385 5210 2    50   ~ 0
GPIO15
Wire Wire Line
	6445 5210 6385 5210
$Comp
L Device:D_Schottky D?
U 1 1 60DD2C1F
P 10405 3620
AR Path="/60D85807/60DD2C1F" Ref="D?"  Part="1" 
AR Path="/60DD2C1F" Ref="D2"  Part="1" 
F 0 "D2" H 10305 3500 50  0000 L CNN
F 1 "SS34" H 10435 3500 50  0000 L CNN
F 2 "Diode_SMD:D_SMA" H 10405 3620 50  0001 C CNN
F 3 "http://www.chinesechip.com/files/2015-06/8b5aa353-e559-4708-bf71-5dbd56a0a342.pdf" H 10405 3620 50  0001 C CNN
	1    10405 3620
	-1   0    0    1   
$EndComp
Wire Wire Line
	10555 3620 10670 3620
$Comp
L Device:LED D?
U 1 1 60DDC305
P 7065 4550
AR Path="/60D85807/60DDC305" Ref="D?"  Part="1" 
AR Path="/60DDC305" Ref="D3"  Part="1" 
F 0 "D3" H 7058 4295 50  0000 C CNN
F 1 "LED" H 7058 4386 50  0000 C CNN
F 2 "LED_SMD:LED_0805_2012Metric_Pad1.15x1.40mm_HandSolder" H 7065 4550 50  0001 C CNN
F 3 "~" H 7065 4550 50  0001 C CNN
	1    7065 4550
	-1   0    0    1   
$EndComp
$Comp
L Device:R R?
U 1 1 60DDC30B
P 6615 4550
AR Path="/60D85807/60DDC30B" Ref="R?"  Part="1" 
AR Path="/60DDC30B" Ref="R13"  Part="1" 
F 0 "R13" V 6525 4470 50  0000 C CNN
F 1 "1k" V 6525 4640 50  0000 C CNN
F 2 "Resistor_SMD:R_0805_2012Metric_Pad1.15x1.40mm_HandSolder" V 6545 4550 50  0001 C CNN
F 3 "~" H 6615 4550 50  0001 C CNN
	1    6615 4550
	0    1    1    0   
$EndComp
Wire Wire Line
	6915 4550 6765 4550
$Comp
L power:GND #PWR?
U 1 1 60DDC312
P 7615 4650
AR Path="/60D85807/60DDC312" Ref="#PWR?"  Part="1" 
AR Path="/60DDC312" Ref="#PWR019"  Part="1" 
F 0 "#PWR019" H 7615 4400 50  0001 C CNN
F 1 "GND" H 7620 4477 50  0000 C CNN
F 2 "" H 7615 4650 50  0001 C CNN
F 3 "" H 7615 4650 50  0001 C CNN
	1    7615 4650
	1    0    0    -1  
$EndComp
Wire Wire Line
	7215 4550 7615 4550
Wire Wire Line
	7615 4550 7615 4650
$Comp
L power:+3.3V #PWR017
U 1 1 60DDEB7B
P 6215 4485
F 0 "#PWR017" H 6215 4335 50  0001 C CNN
F 1 "+3.3V" H 6230 4658 50  0000 C CNN
F 2 "" H 6215 4485 50  0001 C CNN
F 3 "" H 6215 4485 50  0001 C CNN
	1    6215 4485
	1    0    0    -1  
$EndComp
Wire Wire Line
	6215 4485 6215 4550
Wire Wire Line
	6215 4550 6465 4550
$Comp
L Device:C C?
U 1 1 60DED4E8
P 5145 6695
AR Path="/60C9915C/60DED4E8" Ref="C?"  Part="1" 
AR Path="/60DED4E8" Ref="C3"  Part="1" 
F 0 "C3" H 5260 6741 50  0000 L CNN
F 1 "100nF" H 5260 6650 50  0000 L CNN
F 2 "Capacitor_SMD:C_0805_2012Metric_Pad1.15x1.40mm_HandSolder" H 5183 6545 50  0001 C CNN
F 3 "~" H 5145 6695 50  0001 C CNN
	1    5145 6695
	1    0    0    -1  
$EndComp
Wire Wire Line
	5145 6545 5145 6445
Connection ~ 5145 6445
Wire Wire Line
	5145 6445 5580 6445
Wire Wire Line
	6365 6445 6365 6845
Connection ~ 6365 6845
Wire Wire Line
	6365 6845 6365 6900
$Comp
L Device:R R?
U 1 1 60E4F598
P 5105 1870
AR Path="/60C9915C/60E4F598" Ref="R?"  Part="1" 
AR Path="/60E4F598" Ref="R2"  Part="1" 
F 0 "R2" V 5015 1790 50  0000 C CNN
F 1 "10k" V 5015 1960 50  0000 C CNN
F 2 "Resistor_SMD:R_0805_2012Metric_Pad1.15x1.40mm_HandSolder" V 5035 1870 50  0001 C CNN
F 3 "~" H 5105 1870 50  0001 C CNN
	1    5105 1870
	0    1    1    0   
$EndComp
Wire Wire Line
	5255 1870 5645 1870
Text Label 4455 1870 2    50   ~ 0
GPIO16
Wire Wire Line
	4890 1870 4955 1870
$Comp
L Device:D_Schottky D1
U 1 1 60E558C1
P 4740 1870
F 0 "D1" H 4740 1746 50  0000 C CNN
F 1 "D_Schottky" H 4740 1745 50  0001 C CNN
F 2 "Diode_SMD:D_SOD-323_HandSoldering" H 4740 1870 50  0001 C CNN
F 3 "~" H 4740 1870 50  0001 C CNN
	1    4740 1870
	-1   0    0    1   
$EndComp
Wire Wire Line
	4455 1870 4590 1870
Text Label 1875 3345 2    50   ~ 0
GPIO12
Text Label 1875 3445 2    50   ~ 0
GPIO14
Text Label 1875 3245 2    50   ~ 0
GPIO13
Text Label 6985 2570 0    50   ~ 0
GPIO13
Text Label 6985 2670 0    50   ~ 0
GPIO14
Text Label 6985 2470 0    50   ~ 0
GPIO12
$Comp
L Device:R R?
U 1 1 60E6829E
P 2740 4195
AR Path="/60C9915C/60E6829E" Ref="R?"  Part="1" 
AR Path="/60E6829E" Ref="R12"  Part="1" 
F 0 "R12" V 2650 4115 50  0000 C CNN
F 1 "10k" V 2650 4285 50  0000 C CNN
F 2 "Resistor_SMD:R_0805_2012Metric_Pad1.15x1.40mm_HandSolder" V 2670 4195 50  0001 C CNN
F 3 "~" H 2740 4195 50  0001 C CNN
	1    2740 4195
	-1   0    0    1   
$EndComp
$Comp
L Device:R R?
U 1 1 60E6A002
P 2545 4190
AR Path="/60C9915C/60E6A002" Ref="R?"  Part="1" 
AR Path="/60E6A002" Ref="R11"  Part="1" 
F 0 "R11" V 2455 4110 50  0000 C CNN
F 1 "10k" V 2455 4280 50  0000 C CNN
F 2 "Resistor_SMD:R_0805_2012Metric_Pad1.15x1.40mm_HandSolder" V 2475 4190 50  0001 C CNN
F 3 "~" H 2545 4190 50  0001 C CNN
	1    2545 4190
	-1   0    0    1   
$EndComp
$Comp
L Device:R R?
U 1 1 60E6A28B
P 2340 4185
AR Path="/60C9915C/60E6A28B" Ref="R?"  Part="1" 
AR Path="/60E6A28B" Ref="R10"  Part="1" 
F 0 "R10" V 2250 4105 50  0000 C CNN
F 1 "10k" V 2250 4275 50  0000 C CNN
F 2 "Resistor_SMD:R_0805_2012Metric_Pad1.15x1.40mm_HandSolder" V 2270 4185 50  0001 C CNN
F 3 "~" H 2340 4185 50  0001 C CNN
	1    2340 4185
	-1   0    0    1   
$EndComp
Wire Wire Line
	2340 4035 2340 3245
Wire Wire Line
	2545 4040 2545 3345
Wire Wire Line
	2740 4045 2740 3445
Wire Wire Line
	2340 4335 2340 4535
Connection ~ 3390 4535
Wire Wire Line
	3390 4535 3390 4260
Wire Wire Line
	2545 4340 2545 4535
Wire Wire Line
	2740 4345 2740 4535
Text Label 1880 3045 2    50   ~ 0
GPIO05
Wire Wire Line
	2790 3045 2150 3045
Text Label 1885 2945 2    50   ~ 0
GPIO04
Wire Wire Line
	2790 2945 1945 2945
Connection ~ 2340 3245
Wire Wire Line
	2340 3245 2790 3245
Connection ~ 2545 3345
Wire Wire Line
	2545 3345 2790 3345
Connection ~ 2740 3445
Wire Wire Line
	2740 3445 2790 3445
Connection ~ 2740 4535
Wire Wire Line
	2740 4535 3390 4535
Wire Wire Line
	1875 3245 2340 3245
Wire Wire Line
	1875 3345 2545 3345
Wire Wire Line
	1875 3445 2740 3445
$Comp
L Device:R R?
U 1 1 60EB6EE1
P 2150 4185
AR Path="/60C9915C/60EB6EE1" Ref="R?"  Part="1" 
AR Path="/60EB6EE1" Ref="R9"  Part="1" 
F 0 "R9" V 2060 4105 50  0000 C CNN
F 1 "10k" V 2060 4275 50  0000 C CNN
F 2 "Resistor_SMD:R_0805_2012Metric_Pad1.15x1.40mm_HandSolder" V 2080 4185 50  0001 C CNN
F 3 "~" H 2150 4185 50  0001 C CNN
	1    2150 4185
	-1   0    0    1   
$EndComp
$Comp
L Device:R R?
U 1 1 60EB6EE7
P 1945 4180
AR Path="/60C9915C/60EB6EE7" Ref="R?"  Part="1" 
AR Path="/60EB6EE7" Ref="R8"  Part="1" 
F 0 "R8" V 1855 4100 50  0000 C CNN
F 1 "10k" V 1855 4270 50  0000 C CNN
F 2 "Resistor_SMD:R_0805_2012Metric_Pad1.15x1.40mm_HandSolder" V 1875 4180 50  0001 C CNN
F 3 "~" H 1945 4180 50  0001 C CNN
	1    1945 4180
	-1   0    0    1   
$EndComp
Wire Wire Line
	2150 4335 2150 4535
Wire Wire Line
	2150 4535 2340 4535
Wire Wire Line
	2150 4535 1945 4535
Wire Wire Line
	1945 4535 1945 4330
Connection ~ 2150 4535
Wire Wire Line
	2150 4035 2150 3045
Connection ~ 2150 3045
Wire Wire Line
	2150 3045 1880 3045
Wire Wire Line
	1945 4030 1945 2945
Connection ~ 1945 2945
Wire Wire Line
	1945 2945 1885 2945
Connection ~ 2340 4535
Wire Wire Line
	2340 4535 2545 4535
Connection ~ 2545 4535
Wire Wire Line
	2545 4535 2740 4535
$Comp
L Device:R R?
U 1 1 60EE3748
P 4840 6200
AR Path="/60C9915C/60EE3748" Ref="R?"  Part="1" 
AR Path="/60EE3748" Ref="R15"  Part="1" 
F 0 "R15" V 4750 6120 50  0000 C CNN
F 1 "10k" V 4750 6290 50  0000 C CNN
F 2 "Resistor_SMD:R_0805_2012Metric_Pad1.15x1.40mm_HandSolder" V 4770 6200 50  0001 C CNN
F 3 "~" H 4840 6200 50  0001 C CNN
	1    4840 6200
	1    0    0    -1  
$EndComp
Wire Wire Line
	5145 6845 6365 6845
Wire Wire Line
	5980 6445 6365 6445
Wire Wire Line
	4510 6445 4840 6445
Wire Wire Line
	4840 6350 4840 6445
Connection ~ 4840 6445
Wire Wire Line
	4840 6445 5145 6445
$Comp
L power:+3.3V #PWR?
U 1 1 60F0A6F6
P 4840 5990
AR Path="/60C9915C/60F0A6F6" Ref="#PWR?"  Part="1" 
AR Path="/60F0A6F6" Ref="#PWR024"  Part="1" 
F 0 "#PWR024" H 4840 5840 50  0001 C CNN
F 1 "+3.3V" H 4855 6163 50  0000 C CNN
F 2 "" H 4840 5990 50  0001 C CNN
F 3 "" H 4840 5990 50  0001 C CNN
	1    4840 5990
	1    0    0    -1  
$EndComp
Wire Wire Line
	4840 6050 4840 5990
Wire Wire Line
	9330 5540 9235 5540
NoConn ~ 9235 5540
Wire Wire Line
	10270 5535 10270 5635
$Comp
L power:GND #PWR?
U 1 1 60F433F9
P 10270 5635
AR Path="/60D85807/60F433F9" Ref="#PWR?"  Part="1" 
AR Path="/60F433F9" Ref="#PWR023"  Part="1" 
F 0 "#PWR023" H 10270 5385 50  0001 C CNN
F 1 "GND" H 10275 5462 50  0000 C CNN
F 2 "" H 10270 5635 50  0001 C CNN
F 3 "" H 10270 5635 50  0001 C CNN
	1    10270 5635
	1    0    0    -1  
$EndComp
Wire Wire Line
	10030 5535 10270 5535
Wire Wire Line
	2790 3845 2050 3845
Wire Wire Line
	2790 3745 2255 3745
Wire Wire Line
	2790 3645 2445 3645
$Comp
L Device:R R?
U 1 1 60F7F7C0
P 2445 2685
AR Path="/60C9915C/60F7F7C0" Ref="R?"  Part="1" 
AR Path="/60F7F7C0" Ref="R6"  Part="1" 
F 0 "R6" V 2355 2605 50  0000 C CNN
F 1 "10k" V 2355 2775 50  0000 C CNN
F 2 "Resistor_SMD:R_0805_2012Metric_Pad1.15x1.40mm_HandSolder" V 2375 2685 50  0001 C CNN
F 3 "~" H 2445 2685 50  0001 C CNN
	1    2445 2685
	-1   0    0    1   
$EndComp
$Comp
L Device:R R?
U 1 1 60F7F7C6
P 2255 2685
AR Path="/60C9915C/60F7F7C6" Ref="R?"  Part="1" 
AR Path="/60F7F7C6" Ref="R5"  Part="1" 
F 0 "R5" V 2165 2605 50  0000 C CNN
F 1 "10k" V 2165 2775 50  0000 C CNN
F 2 "Resistor_SMD:R_0805_2012Metric_Pad1.15x1.40mm_HandSolder" V 2185 2685 50  0001 C CNN
F 3 "~" H 2255 2685 50  0001 C CNN
	1    2255 2685
	-1   0    0    1   
$EndComp
$Comp
L Device:R R?
U 1 1 60F7F7CC
P 2050 2680
AR Path="/60C9915C/60F7F7CC" Ref="R?"  Part="1" 
AR Path="/60F7F7CC" Ref="R4"  Part="1" 
F 0 "R4" V 1960 2600 50  0000 C CNN
F 1 "10k" V 1960 2770 50  0000 C CNN
F 2 "Resistor_SMD:R_0805_2012Metric_Pad1.15x1.40mm_HandSolder" V 1980 2680 50  0001 C CNN
F 3 "~" H 2050 2680 50  0001 C CNN
	1    2050 2680
	-1   0    0    1   
$EndComp
Wire Wire Line
	2050 2830 2050 3845
Wire Wire Line
	2255 3745 2255 2835
Wire Wire Line
	2445 2835 2445 3645
$Comp
L power:+3.3V #PWR01
U 1 1 60FD47B8
P 3255 1175
F 0 "#PWR01" H 3255 1025 50  0001 C CNN
F 1 "+3.3V" H 3270 1348 50  0000 C CNN
F 2 "" H 3255 1175 50  0001 C CNN
F 3 "" H 3255 1175 50  0001 C CNN
	1    3255 1175
	1    0    0    -1  
$EndComp
Wire Wire Line
	3255 1280 3185 1280
$Comp
L power:+5V #PWR021
U 1 1 60FFF226
P 10840 5275
F 0 "#PWR021" H 10840 5125 50  0001 C CNN
F 1 "+5V" H 10855 5448 50  0000 C CNN
F 2 "" H 10840 5275 50  0001 C CNN
F 3 "" H 10840 5275 50  0001 C CNN
	1    10840 5275
	1    0    0    -1  
$EndComp
$Sheet
S 9330 5250 700  450 
U 5F771775
F0 "Step_Down" 50
F1 "Step_Down.sch" 50
F2 "Vin" I L 9330 5400 50 
F3 "Enable" I L 9330 5540 50 
F4 "GND" B R 10030 5535 50 
F5 "Vout" O R 10030 5400 50 
$EndSheet
Wire Wire Line
	3690 3245 3975 3245
Wire Wire Line
	3975 3345 3690 3345
Wire Wire Line
	3690 3445 3975 3445
Wire Wire Line
	3975 3545 3690 3545
$Comp
L Connector_Generic:Conn_01x04 J1
U 1 1 60C90844
P 4175 3445
F 0 "J1" H 4255 3437 50  0000 L CNN
F 1 "Conn_01x04" H 4255 3346 50  0001 L CNN
F 2 "Connector_JST:JST_XH_B4B-XH-A_1x04_P2.50mm_Vertical" H 4175 3445 50  0001 C CNN
F 3 "~" H 4175 3445 50  0001 C CNN
	1    4175 3445
	1    0    0    1   
$EndComp
$Comp
L Device:C C?
U 1 1 610F293A
P 3925 2670
AR Path="/60C9915C/610F293A" Ref="C?"  Part="1" 
AR Path="/610F293A" Ref="C2"  Part="1" 
F 0 "C2" H 4040 2716 50  0000 L CNN
F 1 "1000uF" H 4040 2625 50  0000 L CNN
F 2 "Capacitor_THT:CP_Radial_D8.0mm_P3.50mm" H 3963 2520 50  0001 C CNN
F 3 "~" H 3925 2670 50  0001 C CNN
	1    3925 2670
	1    0    0    -1  
$EndComp
Wire Wire Line
	3925 2520 3925 2490
Wire Wire Line
	3925 2490 3390 2490
Connection ~ 3390 2490
Wire Wire Line
	3390 2490 3390 2645
$Comp
L power:GND #PWR013
U 1 1 610F9CC7
P 3925 2855
F 0 "#PWR013" H 3925 2605 50  0001 C CNN
F 1 "GND" H 3930 2682 50  0000 C CNN
F 2 "" H 3925 2855 50  0001 C CNN
F 3 "" H 3925 2855 50  0001 C CNN
	1    3925 2855
	1    0    0    -1  
$EndComp
Wire Wire Line
	3925 2820 3925 2855
$Comp
L Device:C C?
U 1 1 61188E56
P 2895 2290
AR Path="/60C9915C/61188E56" Ref="C?"  Part="1" 
AR Path="/61188E56" Ref="C1"  Part="1" 
F 0 "C1" H 3010 2336 50  0000 L CNN
F 1 "100nF" H 3010 2245 50  0000 L CNN
F 2 "Capacitor_SMD:C_0805_2012Metric_Pad1.15x1.40mm_HandSolder" H 2933 2140 50  0001 C CNN
F 3 "~" H 2895 2290 50  0001 C CNN
	1    2895 2290
	-1   0    0    1   
$EndComp
$Comp
L Driver_Motor:Pololu_Breakout_A4988 A1
U 1 1 5F77148A
P 3190 3345
F 0 "A1" H 3545 4040 50  0000 C CNN
F 1 "Pololu_Breakout_A4988" H 3240 4135 50  0001 C CNN
F 2 "Module:Pololu_Breakout-16_15.2x20.3mm" H 3465 2595 50  0001 L CNN
F 3 "https://www.pololu.com/product/2980/pictures" H 3290 3045 50  0001 C CNN
	1    3190 3345
	1    0    0    -1  
$EndComp
$Comp
L power:GND #PWR011
U 1 1 611A2503
P 2895 2475
F 0 "#PWR011" H 2895 2225 50  0001 C CNN
F 1 "GND" H 2900 2302 50  0000 C CNN
F 2 "" H 2895 2475 50  0001 C CNN
F 3 "" H 2895 2475 50  0001 C CNN
	1    2895 2475
	1    0    0    -1  
$EndComp
Wire Wire Line
	2895 2140 2895 2105
Wire Wire Line
	2895 2105 3190 2105
Connection ~ 3190 2105
Wire Wire Line
	3190 2105 3190 2645
Wire Wire Line
	2895 2440 2895 2475
$Comp
L Jumper:SolderJumper_3_Open JP1
U 1 1 6113529B
P 2985 1280
F 0 "JP1" V 3031 1347 50  0001 L CNN
F 1 "SolderJumper_3_Open" V 2940 1347 50  0001 L CNN
F 2 "Jumper:SolderJumper-3_P1.3mm_Open_RoundedPad1.0x1.5mm" H 2985 1280 50  0001 C CNN
F 3 "~" H 2985 1280 50  0001 C CNN
	1    2985 1280
	1    0    0    -1  
$EndComp
$Comp
L power:GND #PWR02
U 1 1 6116CA0A
P 2720 1180
F 0 "#PWR02" H 2720 930 50  0001 C CNN
F 1 "GND" H 2725 1007 50  0000 C CNN
F 2 "" H 2720 1180 50  0001 C CNN
F 3 "" H 2720 1180 50  0001 C CNN
	1    2720 1180
	-1   0    0    1   
$EndComp
Wire Wire Line
	2785 1280 2720 1280
Wire Wire Line
	2720 1280 2720 1180
Wire Wire Line
	3255 1175 3255 1280
$Comp
L power:+3.3V #PWR03
U 1 1 611814B9
P 2430 1185
F 0 "#PWR03" H 2430 1035 50  0001 C CNN
F 1 "+3.3V" H 2445 1358 50  0000 C CNN
F 2 "" H 2430 1185 50  0001 C CNN
F 3 "" H 2430 1185 50  0001 C CNN
	1    2430 1185
	1    0    0    -1  
$EndComp
Wire Wire Line
	2430 1290 2360 1290
$Comp
L Jumper:SolderJumper_3_Open JP2
U 1 1 611814C0
P 2160 1290
F 0 "JP2" V 2206 1357 50  0001 L CNN
F 1 "SolderJumper_3_Open" V 2115 1357 50  0001 L CNN
F 2 "Jumper:SolderJumper-3_P1.3mm_Open_RoundedPad1.0x1.5mm" H 2160 1290 50  0001 C CNN
F 3 "~" H 2160 1290 50  0001 C CNN
	1    2160 1290
	1    0    0    -1  
$EndComp
$Comp
L power:GND #PWR05
U 1 1 611814C6
P 1895 1190
F 0 "#PWR05" H 1895 940 50  0001 C CNN
F 1 "GND" H 1900 1017 50  0000 C CNN
F 2 "" H 1895 1190 50  0001 C CNN
F 3 "" H 1895 1190 50  0001 C CNN
	1    1895 1190
	-1   0    0    1   
$EndComp
Wire Wire Line
	1960 1290 1895 1290
Wire Wire Line
	1895 1290 1895 1190
Wire Wire Line
	2430 1185 2430 1290
$Comp
L power:+3.3V #PWR04
U 1 1 61191473
P 1625 1190
F 0 "#PWR04" H 1625 1040 50  0001 C CNN
F 1 "+3.3V" H 1640 1363 50  0000 C CNN
F 2 "" H 1625 1190 50  0001 C CNN
F 3 "" H 1625 1190 50  0001 C CNN
	1    1625 1190
	1    0    0    -1  
$EndComp
Wire Wire Line
	1625 1295 1555 1295
$Comp
L Jumper:SolderJumper_3_Open JP3
U 1 1 6119147A
P 1355 1295
F 0 "JP3" V 1401 1362 50  0001 L CNN
F 1 "SolderJumper_3_Open" V 1310 1362 50  0001 L CNN
F 2 "Jumper:SolderJumper-3_P1.3mm_Open_RoundedPad1.0x1.5mm" H 1355 1295 50  0001 C CNN
F 3 "~" H 1355 1295 50  0001 C CNN
	1    1355 1295
	1    0    0    -1  
$EndComp
$Comp
L power:GND #PWR06
U 1 1 61191480
P 1090 1195
F 0 "#PWR06" H 1090 945 50  0001 C CNN
F 1 "GND" H 1095 1022 50  0000 C CNN
F 2 "" H 1090 1195 50  0001 C CNN
F 3 "" H 1090 1195 50  0001 C CNN
	1    1090 1195
	-1   0    0    1   
$EndComp
Wire Wire Line
	1155 1295 1090 1295
Wire Wire Line
	1090 1295 1090 1195
Wire Wire Line
	1625 1190 1625 1295
Wire Wire Line
	2050 1985 1355 1985
Wire Wire Line
	1355 1985 1355 1445
Wire Wire Line
	2445 2535 2445 1575
Wire Wire Line
	2445 1575 2985 1575
Wire Wire Line
	2985 1575 2985 1430
Wire Wire Line
	2160 1440 2255 1440
Wire Wire Line
	2255 1440 2255 2535
Wire Wire Line
	2050 1985 2050 2530
$Comp
L Device:D_Schottky D?
U 1 1 611D71B6
P 10420 5400
AR Path="/60D85807/611D71B6" Ref="D?"  Part="1" 
AR Path="/611D71B6" Ref="D5"  Part="1" 
F 0 "D5" H 10320 5280 50  0000 L CNN
F 1 "SS34" H 10450 5280 50  0000 L CNN
F 2 "Diode_SMD:D_SMA" H 10420 5400 50  0001 C CNN
F 3 "http://www.chinesechip.com/files/2015-06/8b5aa353-e559-4708-bf71-5dbd56a0a342.pdf" H 10420 5400 50  0001 C CNN
	1    10420 5400
	-1   0    0    1   
$EndComp
Wire Wire Line
	10570 5400 10840 5400
Wire Wire Line
	10840 5400 10840 5275
$Comp
L Connector_Generic:Conn_01x03 J4
U 1 1 6122737B
P 4380 2350
F 0 "J4" H 4298 2117 50  0001 C CNN
F 1 "Conn_01x03" H 4298 2116 50  0001 C CNN
F 2 "Connector_JST:JST_PH_B3B-PH-K_1x03_P2.00mm_Vertical" H 4380 2350 50  0001 C CNN
F 3 "~" H 4380 2350 50  0001 C CNN
	1    4380 2350
	-1   0    0    1   
$EndComp
Wire Wire Line
	5645 2270 5410 2270
Wire Wire Line
	5410 2270 5410 2350
Wire Wire Line
	4580 2250 5205 2250
Wire Wire Line
	5205 2250 5205 2070
Connection ~ 5205 2070
Wire Wire Line
	5205 2070 5145 2070
$Comp
L power:GND #PWR?
U 1 1 6123F9EA
P 5200 2850
AR Path="/60C9915C/6123F9EA" Ref="#PWR?"  Part="1" 
AR Path="/6123F9EA" Ref="#PWR035"  Part="1" 
F 0 "#PWR035" H 5200 2600 50  0001 C CNN
F 1 "GND" H 5205 2677 50  0000 C CNN
F 2 "" H 5200 2850 50  0001 C CNN
F 3 "" H 5200 2850 50  0001 C CNN
	1    5200 2850
	1    0    0    -1  
$EndComp
Wire Wire Line
	4580 2450 5200 2450
Wire Wire Line
	5200 2450 5200 2790
$Comp
L Device:R R?
U 1 1 61258A3A
P 4785 2350
AR Path="/60C86360/61258A3A" Ref="R?"  Part="1" 
AR Path="/61258A3A" Ref="R25"  Part="1" 
F 0 "R25" V 4735 2200 50  0000 C CNN
F 1 "82k" V 4740 2540 50  0000 C CNN
F 2 "Resistor_SMD:R_0805_2012Metric_Pad1.15x1.40mm_HandSolder" V 4715 2350 50  0001 C CNN
F 3 "~" H 4785 2350 50  0001 C CNN
	1    4785 2350
	0    1    1    0   
$EndComp
Wire Wire Line
	4580 2350 4635 2350
$Comp
L Device:R R?
U 1 1 61277B71
P 5360 2580
AR Path="/60C86360/61277B71" Ref="R?"  Part="1" 
AR Path="/61277B71" Ref="R26"  Part="1" 
F 0 "R26" H 5280 2435 50  0000 C CNN
F 1 "33k" H 5265 2730 50  0000 C CNN
F 2 "Resistor_SMD:R_0805_2012Metric_Pad1.15x1.40mm_HandSolder" V 5290 2580 50  0001 C CNN
F 3 "~" H 5360 2580 50  0001 C CNN
	1    5360 2580
	-1   0    0    1   
$EndComp
Wire Wire Line
	5360 2430 5360 2350
Wire Wire Line
	4935 2350 5360 2350
Connection ~ 5360 2350
Wire Wire Line
	5360 2350 5410 2350
Wire Wire Line
	5200 2790 5360 2790
Wire Wire Line
	5360 2790 5360 2730
Connection ~ 5200 2790
Wire Wire Line
	5200 2790 5200 2850
$EndSCHEMATC
