EESchema Schematic File Version 4
EELAYER 30 0
EELAYER END
$Descr A4 11693 8268
encoding utf-8
Sheet 2 3
Title ""
Date ""
Rev ""
Comp ""
Comment1 ""
Comment2 ""
Comment3 ""
Comment4 ""
$EndDescr
$Comp
L Device:Q_NPN_BEC Q1
U 1 1 5DA90BA7
P 1985 1845
F 0 "Q1" H 2176 1891 50  0000 L CNN
F 1 "BC847" H 2176 1800 50  0000 L CNN
F 2 "Package_TO_SOT_SMD:SOT-23" H 2185 1945 50  0001 C CNN
F 3 "~" H 1985 1845 50  0001 C CNN
	1    1985 1845
	1    0    0    -1  
$EndComp
$Comp
L Device:Q_NPN_BEC Q2
U 1 1 5DA9373F
P 1985 2545
F 0 "Q2" H 2176 2499 50  0000 L CNN
F 1 "BC847" H 2176 2590 50  0000 L CNN
F 2 "Package_TO_SOT_SMD:SOT-23" H 2185 2645 50  0001 C CNN
F 3 "~" H 1985 2545 50  0001 C CNN
	1    1985 2545
	1    0    0    1   
$EndComp
$Comp
L Device:R R16
U 1 1 5DA951F5
P 1375 1845
F 0 "R16" V 1285 1765 50  0000 C CNN
F 1 "12k" V 1285 1935 50  0000 C CNN
F 2 "Resistor_SMD:R_0805_2012Metric_Pad1.15x1.40mm_HandSolder" V 1305 1845 50  0001 C CNN
F 3 "~" H 1375 1845 50  0001 C CNN
	1    1375 1845
	0    1    1    0   
$EndComp
$Comp
L Device:R R17
U 1 1 5DA9550A
P 1385 2545
F 0 "R17" V 1295 2465 50  0000 C CNN
F 1 "12k" V 1295 2635 50  0000 C CNN
F 2 "Resistor_SMD:R_0805_2012Metric_Pad1.15x1.40mm_HandSolder" V 1315 2545 50  0001 C CNN
F 3 "~" H 1385 2545 50  0001 C CNN
	1    1385 2545
	0    1    1    0   
$EndComp
Wire Wire Line
	1525 1845 1785 1845
Wire Wire Line
	1235 2545 1075 2545
Wire Wire Line
	1785 2545 1535 2545
Wire Wire Line
	1145 1845 1145 2245
Wire Wire Line
	1145 2245 2085 2245
Wire Wire Line
	2085 2245 2085 2345
Wire Wire Line
	985  1845 1145 1845
Connection ~ 1145 1845
Wire Wire Line
	1145 1845 1225 1845
Wire Wire Line
	1075 2545 1075 2045
Wire Wire Line
	1075 2045 2085 2045
Connection ~ 1075 2545
Wire Wire Line
	2085 2745 2085 2845
Wire Wire Line
	2085 2845 2645 2845
Wire Wire Line
	2085 1545 2685 1545
Wire Wire Line
	2085 1545 2085 1645
Wire Notes Line
	3110 3800 470  3800
Text Notes 955  1565 0    50   ~ 0
ESP Reset Circuit
Wire Notes Line
	3115 5765 475  5765
Wire Notes Line
	3110 470  3110 7790
$Comp
L power:GND #PWR034
U 1 1 5DAFACA3
P 1970 7005
F 0 "#PWR034" H 1970 6755 50  0001 C CNN
F 1 "GND" H 1975 6832 50  0000 C CNN
F 2 "" H 1970 7005 50  0001 C CNN
F 3 "" H 1970 7005 50  0001 C CNN
	1    1970 7005
	1    0    0    -1  
$EndComp
Wire Wire Line
	1790 6935 1970 6935
Wire Wire Line
	1970 6935 1970 7005
Wire Wire Line
	1200 6445 1200 6515
Text Notes 1550 6445 0    50   ~ 0
Manual Reset Switch
$Comp
L Switch:SW_Push SW3
U 1 1 5DB1800C
P 1590 6935
F 0 "SW3" H 1590 7220 50  0000 C CNN
F 1 "Reset" H 1590 7129 50  0000 C CNN
F 2 "Button_Switch_SMD:SW_SPST_SKQG_WithStem" H 1590 7135 50  0001 C CNN
F 3 "~" H 1590 7135 50  0001 C CNN
	1    1590 6935
	1    0    0    -1  
$EndComp
Wire Wire Line
	1200 6815 1200 6935
$Comp
L Device:R R20
U 1 1 5DAF49C7
P 1200 6665
F 0 "R20" V 1110 6585 50  0000 C CNN
F 1 "1k" V 1110 6755 50  0000 C CNN
F 2 "Resistor_SMD:R_0805_2012Metric_Pad1.15x1.40mm_HandSolder" V 1130 6665 50  0001 C CNN
F 3 "~" H 1200 6665 50  0001 C CNN
	1    1200 6665
	-1   0    0    1   
$EndComp
$Comp
L power:GND #PWR030
U 1 1 5DD6DEA7
P 5605 4620
F 0 "#PWR030" H 5605 4370 50  0001 C CNN
F 1 "GND" H 5610 4447 50  0000 C CNN
F 2 "" H 5605 4620 50  0001 C CNN
F 3 "" H 5605 4620 50  0001 C CNN
	1    5605 4620
	1    0    0    -1  
$EndComp
Wire Wire Line
	5605 4620 5605 4550
$Comp
L power:GND #PWR031
U 1 1 5DD6EFFA
P 7345 5000
F 0 "#PWR031" H 7345 4750 50  0001 C CNN
F 1 "GND" H 7350 4827 50  0000 C CNN
F 2 "" H 7345 5000 50  0001 C CNN
F 3 "" H 7345 5000 50  0001 C CNN
	1    7345 5000
	1    0    0    -1  
$EndComp
Wire Wire Line
	805  2545 1075 2545
Wire Wire Line
	5905 4150 6435 4150
Wire Wire Line
	6435 4150 6435 4030
Wire Wire Line
	6435 4030 6945 4030
Wire Wire Line
	5905 4250 6555 4250
Wire Wire Line
	6555 4250 6555 4130
Wire Wire Line
	6555 4130 6945 4130
Wire Wire Line
	5505 4550 5605 4550
Text HLabel 2685 1545 2    50   Input ~ 0
RST
Text HLabel 2645 2845 2    50   Input ~ 0
GPIO0
Text Label 985  1845 2    50   ~ 0
DTR
Text Label 805  2545 2    50   ~ 0
RTS
Text Label 7995 4430 0    50   ~ 0
DTR
Text Label 7995 4530 0    50   ~ 0
RTS
Wire Wire Line
	7745 4430 7995 4430
Wire Wire Line
	7745 4530 7995 4530
Text HLabel 1200 6445 1    50   Input ~ 0
RST
$Comp
L Device:Crystal Y1
U 1 1 5DDB3FB8
P 1625 4865
F 0 "Y1" H 1625 5133 50  0000 C CNN
F 1 "Crystal" H 1625 5042 50  0000 C CNN
F 2 "Crystal:Crystal_SMD_HC49-SD" H 1625 4865 50  0001 C CNN
F 3 "~" H 1625 4865 50  0001 C CNN
	1    1625 4865
	1    0    0    -1  
$EndComp
$Comp
L Device:C C?
U 1 1 5DDB5DAD
P 1315 5135
AR Path="/5DDB5DAD" Ref="C?"  Part="1" 
AR Path="/5DA7086F/5DDB5DAD" Ref="C?"  Part="1" 
AR Path="/5DE868BC/5DDB5DAD" Ref="C?"  Part="1" 
AR Path="/60C86360/5DDB5DAD" Ref="C9"  Part="1" 
F 0 "C9" H 1493 5181 50  0000 L CNN
F 1 "22pF" H 1493 5090 50  0000 L CNN
F 2 "Capacitor_SMD:C_0805_2012Metric_Pad1.15x1.40mm_HandSolder" H 1315 5135 50  0001 C CNN
F 3 "~" H 1315 5135 50  0001 C CNN
	1    1315 5135
	1    0    0    -1  
$EndComp
$Comp
L Device:C C?
U 1 1 5DDB5DB3
P 1895 5135
AR Path="/5DDB5DB3" Ref="C?"  Part="1" 
AR Path="/5DA7086F/5DDB5DB3" Ref="C?"  Part="1" 
AR Path="/5DE868BC/5DDB5DB3" Ref="C?"  Part="1" 
AR Path="/60C86360/5DDB5DB3" Ref="C10"  Part="1" 
F 0 "C10" H 2073 5181 50  0000 L CNN
F 1 "22pF" H 2073 5090 50  0000 L CNN
F 2 "Capacitor_SMD:C_0805_2012Metric_Pad1.15x1.40mm_HandSolder" H 1895 5135 50  0001 C CNN
F 3 "~" H 1895 5135 50  0001 C CNN
	1    1895 5135
	1    0    0    -1  
$EndComp
$Comp
L power:GND #PWR032
U 1 1 5DDB6715
P 1315 5285
F 0 "#PWR032" H 1315 5035 50  0001 C CNN
F 1 "GND" H 1320 5112 50  0000 C CNN
F 2 "" H 1315 5285 50  0001 C CNN
F 3 "" H 1315 5285 50  0001 C CNN
	1    1315 5285
	1    0    0    -1  
$EndComp
$Comp
L power:GND #PWR033
U 1 1 5DDB6FFF
P 1895 5285
F 0 "#PWR033" H 1895 5035 50  0001 C CNN
F 1 "GND" H 1900 5112 50  0000 C CNN
F 2 "" H 1895 5285 50  0001 C CNN
F 3 "" H 1895 5285 50  0001 C CNN
	1    1895 5285
	1    0    0    -1  
$EndComp
Wire Wire Line
	1895 4985 1895 4865
Wire Wire Line
	1895 4865 1775 4865
Wire Wire Line
	1315 4985 1315 4865
Wire Wire Line
	1315 4865 1475 4865
Wire Wire Line
	1895 4865 1895 4605
Wire Wire Line
	1895 4605 2715 4605
Connection ~ 1895 4865
Wire Wire Line
	1315 4865 1315 4445
Wire Wire Line
	1315 4445 2715 4445
Connection ~ 1315 4865
Text Label 2715 4445 0    50   ~ 0
XI
Text Label 2715 4605 0    50   ~ 0
XO
Text Label 6765 4330 2    50   ~ 0
XI
Wire Wire Line
	6945 4330 6765 4330
Wire Wire Line
	6945 4530 6765 4530
Text Label 6765 4530 2    50   ~ 0
XO
Text Notes 985  4265 0    50   ~ 0
Crystal Oscillator
NoConn ~ 7745 4030
NoConn ~ 7745 4130
NoConn ~ 7745 4230
NoConn ~ 7745 4330
Wire Wire Line
	7345 5000 7345 4730
$Comp
L Interface_USB:CH340G U3
U 1 1 5DEBC833
P 7345 4130
F 0 "U3" H 7110 3530 50  0000 C CNN
F 1 "CH340G" H 7580 3540 50  0000 C CNN
F 2 "Package_SO:SOIC-16_3.9x9.9mm_P1.27mm" H 7395 3580 50  0001 L CNN
F 3 "http://www.datasheet5.com/pdf-local-2195953" H 6995 4930 50  0001 C CNN
	1    7345 4130
	1    0    0    -1  
$EndComp
NoConn ~ 6945 3830
$Comp
L Device:R R18
U 1 1 5DDCF722
P 8295 3730
F 0 "R18" V 8205 3650 50  0000 C CNN
F 1 "470" V 8205 3820 50  0000 C CNN
F 2 "Resistor_SMD:R_0805_2012Metric_Pad1.15x1.40mm_HandSolder" V 8225 3730 50  0001 C CNN
F 3 "~" H 8295 3730 50  0001 C CNN
	1    8295 3730
	0    1    1    0   
$EndComp
$Comp
L Device:R R19
U 1 1 5DDD0556
P 8295 3830
F 0 "R19" V 8205 3750 50  0000 C CNN
F 1 "470" V 8205 3920 50  0000 C CNN
F 2 "Resistor_SMD:R_0805_2012Metric_Pad1.15x1.40mm_HandSolder" V 8225 3830 50  0001 C CNN
F 3 "~" H 8295 3830 50  0001 C CNN
	1    8295 3830
	0    -1   -1   0   
$EndComp
Text HLabel 8655 3730 2    50   Input ~ 0
TXD
Text HLabel 8655 3830 2    50   Input ~ 0
RXD
Wire Wire Line
	8445 3730 8655 3730
Wire Wire Line
	8445 3830 8655 3830
NoConn ~ 5905 4350
$Comp
L Device:C C?
U 1 1 5DD81F92
P 8245 2570
AR Path="/5DD81F92" Ref="C?"  Part="1" 
AR Path="/5DA7086F/5DD81F92" Ref="C?"  Part="1" 
AR Path="/5DE868BC/5DD81F92" Ref="C?"  Part="1" 
AR Path="/60C86360/5DD81F92" Ref="C5"  Part="1" 
F 0 "C5" H 8345 2620 50  0000 L CNN
F 1 "10uF" H 8345 2520 50  0000 L CNN
F 2 "Capacitor_SMD:C_0805_2012Metric_Pad1.15x1.40mm_HandSolder" H 8245 2570 50  0001 C CNN
F 3 "~" H 8245 2570 50  0001 C CNN
	1    8245 2570
	1    0    0    -1  
$EndComp
$Comp
L power:GND #PWR029
U 1 1 5DD8AA62
P 6645 2800
F 0 "#PWR029" H 6645 2550 50  0001 C CNN
F 1 "GND" H 6650 2627 50  0000 C CNN
F 2 "" H 6645 2800 50  0001 C CNN
F 3 "" H 6645 2800 50  0001 C CNN
	1    6645 2800
	1    0    0    -1  
$EndComp
Wire Wire Line
	8245 2370 8245 2420
Wire Wire Line
	7795 2420 7795 2370
Wire Wire Line
	7795 2370 8245 2370
Wire Wire Line
	7795 2800 7795 2720
Wire Wire Line
	7795 2800 8245 2800
Wire Wire Line
	8245 2800 8245 2720
Connection ~ 7795 2800
Connection ~ 6645 2800
Wire Wire Line
	8245 2370 8685 2370
Wire Wire Line
	7345 3450 7345 3530
Connection ~ 8245 2370
Wire Wire Line
	7345 3450 7245 3450
Wire Wire Line
	7245 3450 7245 3530
Connection ~ 7345 3450
Wire Wire Line
	8685 2370 8685 3450
$Comp
L Device:C C?
U 1 1 5DE218A1
P 7345 3200
AR Path="/5DE218A1" Ref="C?"  Part="1" 
AR Path="/5DA7086F/5DE218A1" Ref="C?"  Part="1" 
AR Path="/5DE868BC/5DE218A1" Ref="C?"  Part="1" 
AR Path="/60C86360/5DE218A1" Ref="C7"  Part="1" 
F 0 "C7" H 7445 3250 50  0000 L CNN
F 1 "10uF" H 7445 3150 50  0000 L CNN
F 2 "Capacitor_SMD:C_0805_2012Metric_Pad1.15x1.40mm_HandSolder" H 7345 3200 50  0001 C CNN
F 3 "~" H 7345 3200 50  0001 C CNN
	1    7345 3200
	-1   0    0    1   
$EndComp
$Comp
L Device:C C?
U 1 1 5DE218A7
P 7795 3200
AR Path="/5DE218A7" Ref="C?"  Part="1" 
AR Path="/5DA7086F/5DE218A7" Ref="C?"  Part="1" 
AR Path="/5DE868BC/5DE218A7" Ref="C?"  Part="1" 
AR Path="/60C86360/5DE218A7" Ref="C8"  Part="1" 
F 0 "C8" H 7895 3250 50  0000 L CNN
F 1 "100nF" H 7895 3150 50  0000 L CNN
F 2 "Capacitor_SMD:C_0805_2012Metric_Pad1.15x1.40mm_HandSolder" H 7795 3200 50  0001 C CNN
F 3 "~" H 7795 3200 50  0001 C CNN
	1    7795 3200
	-1   0    0    1   
$EndComp
Wire Wire Line
	7345 3450 7345 3350
Wire Wire Line
	7345 3050 7345 2800
Connection ~ 7345 2800
Wire Wire Line
	7345 2800 7795 2800
Wire Wire Line
	8685 3450 7795 3450
Wire Wire Line
	7795 3050 7795 2800
Wire Wire Line
	7795 3350 7795 3450
Connection ~ 7795 3450
Wire Wire Line
	7795 3450 7345 3450
$Comp
L power:+3.3V #PWR028
U 1 1 5DE38E4E
P 8685 2370
F 0 "#PWR028" H 8685 2220 50  0001 C CNN
F 1 "+3.3V" H 8700 2543 50  0000 C CNN
F 2 "" H 8685 2370 50  0001 C CNN
F 3 "" H 8685 2370 50  0001 C CNN
	1    8685 2370
	1    0    0    -1  
$EndComp
Connection ~ 8685 2370
$Comp
L Device:C C?
U 1 1 5DE3F185
P 5955 2580
AR Path="/5DE3F185" Ref="C?"  Part="1" 
AR Path="/5DA7086F/5DE3F185" Ref="C?"  Part="1" 
AR Path="/5DE868BC/5DE3F185" Ref="C?"  Part="1" 
AR Path="/60C86360/5DE3F185" Ref="C6"  Part="1" 
F 0 "C6" H 6055 2630 50  0000 L CNN
F 1 "10uF" H 6055 2530 50  0000 L CNN
F 2 "Capacitor_SMD:C_0805_2012Metric_Pad1.15x1.40mm_HandSolder" H 5955 2580 50  0001 C CNN
F 3 "~" H 5955 2580 50  0001 C CNN
	1    5955 2580
	1    0    0    -1  
$EndComp
Wire Wire Line
	5955 2430 5955 2370
Wire Wire Line
	6645 2800 5955 2800
Wire Wire Line
	5955 2800 5955 2730
Wire Wire Line
	5955 2370 5445 2370
Wire Wire Line
	5445 2370 5445 3340
Wire Wire Line
	5445 3340 6275 3340
Wire Wire Line
	6275 3340 6275 3950
Connection ~ 5955 2370
Wire Wire Line
	6645 2800 7345 2800
$Comp
L Device:C C?
U 1 1 5DD8E842
P 7795 2570
AR Path="/5DD8E842" Ref="C?"  Part="1" 
AR Path="/5DA7086F/5DD8E842" Ref="C?"  Part="1" 
AR Path="/5DE868BC/5DD8E842" Ref="C?"  Part="1" 
AR Path="/60C86360/5DD8E842" Ref="C4"  Part="1" 
F 0 "C4" H 7895 2620 50  0000 L CNN
F 1 "100nF" H 7895 2520 50  0000 L CNN
F 2 "Capacitor_SMD:C_0805_2012Metric_Pad1.15x1.40mm_HandSolder" H 7795 2570 50  0001 C CNN
F 3 "~" H 7795 2570 50  0001 C CNN
	1    7795 2570
	1    0    0    -1  
$EndComp
$Comp
L Regulator_Linear:LM1117-3.3 U2
U 1 1 5DDEE4EC
P 7345 2370
F 0 "U2" H 7345 2612 50  0000 C CNN
F 1 "LM1117-3.3" H 7345 2521 50  0000 C CNN
F 2 "Package_TO_SOT_SMD:SOT-223-3_TabPin2" H 7345 2370 50  0001 C CNN
F 3 "http://www.ti.com/lit/ds/symlink/lm1117.pdf" H 7345 2370 50  0001 C CNN
	1    7345 2370
	1    0    0    -1  
$EndComp
Wire Wire Line
	7645 2370 7795 2370
Connection ~ 7795 2370
Wire Wire Line
	7345 2670 7345 2800
$Comp
L power:+5V #PWR027
U 1 1 5DE768E0
P 5445 2340
F 0 "#PWR027" H 5445 2190 50  0001 C CNN
F 1 "+5V" H 5460 2513 50  0000 C CNN
F 2 "" H 5445 2340 50  0001 C CNN
F 3 "" H 5445 2340 50  0001 C CNN
	1    5445 2340
	1    0    0    -1  
$EndComp
Text Label 7765 3730 0    50   ~ 0
TX_USB
Text Label 7755 3830 0    50   ~ 0
RX_USB
Wire Wire Line
	7745 3730 8145 3730
Wire Wire Line
	7745 3830 8145 3830
Wire Wire Line
	6275 3950 6265 3950
Wire Wire Line
	5905 3950 5965 3950
$Comp
L Device:D_Schottky D?
U 1 1 5DD7C762
P 6115 3950
AR Path="/5DD7C762" Ref="D?"  Part="1" 
AR Path="/5DE868BC/5DD7C762" Ref="D?"  Part="1" 
AR Path="/60C86360/5DD7C762" Ref="D6"  Part="1" 
F 0 "D6" H 5975 4060 50  0000 L CNN
F 1 "SS34" H 6125 4060 50  0000 L CNN
F 2 "Diode_SMD:D_SMA" H 6115 3950 50  0001 C CNN
F 3 "http://www.chinesechip.com/files/2015-06/8b5aa353-e559-4708-bf71-5dbd56a0a342.pdf" H 6115 3950 50  0001 C CNN
	1    6115 3950
	-1   0    0    1   
$EndComp
Wire Wire Line
	5445 2340 5445 2370
Connection ~ 5445 2370
Wire Wire Line
	1200 6935 1390 6935
$Comp
L Connector:USB_B_Mini J3
U 1 1 610DA04C
P 5605 4150
F 0 "J3" H 5662 4617 50  0000 C CNN
F 1 "USB_B_Mini" H 5662 4526 50  0000 C CNN
F 2 "Connector_USB:USB_Mini-B_Wuerth_65100516121_Horizontal" H 5755 4100 50  0001 C CNN
F 3 "~" H 5755 4100 50  0001 C CNN
	1    5605 4150
	1    0    0    -1  
$EndComp
Connection ~ 5605 4550
Wire Wire Line
	5955 2370 7045 2370
$EndSCHEMATC
